{
    "data": {
      "et_studies": [
        {
          "description": "study description",
          "energy_capture_id": 3,
          "id": 1,
          "machine_characterisation_id": 2,
          "name": "test study",
          "site_characterisation_id": 1,
          "standalone": false
        },
        {
          "description": "second test study description",
          "energy_capture_id": null,
          "id": 2,
          "machine_characterisation_id": null,
          "name": "second test study",
          "site_characterisation_id": null,
          "standalone": true
        }
      ]
    }
}
