<?xml version="1.0" standalone="no"?>
<!DOCTYPE svg PUBLIC "-//W3C//DTD SVG 20010904//EN"
 "http://www.w3.org/TR/2001/REC-SVG-20010904/DTD/svg10.dtd">
<svg version="1.0" xmlns="http://www.w3.org/2000/svg"
 width="606.000000pt" height="670.000000pt" viewBox="0 0 606.000000 670.000000"
 preserveAspectRatio="xMidYMid meet">
<metadata>
Created by potrace 1.16, written by Peter Selinger 2001-2019
</metadata>
<g transform="translate(0.000000,670.000000) scale(0.100000,-0.100000)"
fill="#000000" stroke="none">
<path d="M910 6251 l0 -310 -42 -4 -43 -4 43 -1 42 -2 0 -619 0 -620 -42 -4
-43 -4 43 -1 42 -2 0 -614 0 -615 -42 -4 -43 -4 43 -1 42 -2 0 -619 0 -620
-42 -4 -43 -4 43 -1 42 -2 0 -619 0 -620 -42 -4 -43 -4 42 -1 c39 -2 42 -4 46
-34 l4 -33 1 33 2 32 469 0 470 0 4 -32 4 -33 1 33 2 32 464 0 465 0 4 -32 4
-33 1 33 2 32 474 0 475 0 4 -32 4 -33 1 33 2 32 464 0 465 0 4 -32 4 -33 1
33 2 32 278 2 c152 1 260 3 240 5 l-38 4 0 619 0 619 38 4 37 4 -37 1 -38 2 0
619 0 620 38 4 37 4 -37 1 -38 2 0 614 0 615 38 4 37 4 -37 1 -38 2 0 619 0
620 38 4 37 4 -37 1 -38 2 0 310 0 310 -2140 0 -2140 0 0 -309z m230 149 l0
-150 -110 0 -110 0 0 150 0 150 110 0 110 0 0 -150z m242 58 l2 -93 3 93 4 92
109 0 110 0 2 -92 2 -93 3 93 4 92 119 0 120 0 2 -92 2 -93 3 93 4 92 109 0
110 0 2 -92 2 -93 3 93 4 92 109 0 110 0 2 -92 2 -93 3 93 4 92 119 0 120 0 2
-92 2 -93 3 93 4 92 109 0 110 0 2 -92 2 -93 3 93 4 92 114 0 115 0 2 -92 2
-93 3 93 4 92 114 0 115 0 2 -92 2 -93 3 93 4 92 109 0 110 0 2 -92 2 -93 3
93 4 92 119 0 120 0 2 -92 2 -93 3 93 4 92 109 0 110 0 2 -92 2 -93 3 93 4 92
109 0 110 0 2 -92 2 -93 3 93 4 92 119 0 120 0 2 -92 2 -93 3 93 4 92 109 0
110 0 2 -92 2 -93 3 93 4 92 114 0 115 0 0 -150 c0 -148 0 -150 -22 -151 l-23
-2 23 -4 c22 -4 22 -7 22 -154 l0 -149 -115 0 -115 0 -2 48 -2 47 -3 -47 -4
-48 -110 0 -109 0 -2 48 -2 47 -3 -47 -4 -48 -120 0 -119 0 -2 48 -2 47 -3
-47 -4 -48 -110 0 -109 0 -2 48 -2 47 -3 -47 -4 -48 -110 0 -109 0 -2 48 -2
47 -3 -47 -4 -48 -120 0 -119 0 -2 48 -2 47 -3 -47 -4 -48 -110 0 -109 0 -2
48 -2 47 -3 -47 -4 -48 -115 0 -114 0 -2 48 -2 47 -3 -47 -4 -48 -115 0 -114
0 -2 48 -2 47 -3 -47 -4 -48 -110 0 -109 0 -2 48 -2 47 -3 -47 -4 -48 -120 0
-119 0 -2 48 -2 47 -3 -47 -4 -48 -110 0 -109 0 -2 48 -2 47 -3 -47 -4 -48
-110 0 -109 0 -2 48 -2 47 -3 -47 -4 -48 -120 0 -119 0 -2 48 -2 47 -3 -47 -4
-48 -110 0 -109 0 -2 48 -2 47 -3 -47 -4 -48 -115 0 -114 0 0 150 c0 136 2
150 18 151 16 1 16 2 0 6 -16 4 -18 20 -18 154 l0 149 115 0 115 0 2 -92z
m3798 -58 l0 -150 -115 0 -115 0 0 150 0 150 115 0 115 0 0 -150z m-4040 -310
l0 -150 -110 0 -110 0 0 150 0 150 110 0 110 0 0 -150z m4040 0 l0 -150 -115
0 -115 0 0 150 0 150 115 0 115 0 0 -150z m-4040 -310 l0 -150 -110 0 -110 0
0 150 0 150 110 0 110 0 0 -150z m240 0 l0 -150 -115 0 -115 0 0 150 0 150
115 0 115 0 0 -150z m230 0 l0 -150 -110 0 -110 0 0 150 0 150 110 0 110 0 0
-150z m250 0 l0 -150 -120 0 -120 0 0 150 0 150 120 0 120 0 0 -150z m230 0
l0 -150 -110 0 -110 0 0 150 0 150 110 0 110 0 0 -150z m230 0 l0 -150 -110 0
-110 0 0 150 0 150 110 0 110 0 0 -150z m250 0 l0 -150 -120 0 -120 0 0 150 0
150 120 0 120 0 0 -150z m230 0 l0 -150 -110 0 -110 0 0 150 0 150 110 0 110
0 0 -150z m240 0 l0 -150 -115 0 -115 0 0 150 0 150 115 0 115 0 0 -150z m240
10 l0 -139 -37 -10 c-21 -6 -73 -11 -115 -11 l-78 0 0 150 0 150 115 0 115 0
0 -140z m230 20 c0 -116 -1 -120 -22 -124 -41 -9 -92 -16 -145 -23 l-53 -5 0
136 0 136 110 0 110 0 0 -120z m250 0 l0 -120 -120 0 -120 0 0 120 0 120 120
0 120 0 0 -120z m230 -16 c0 -130 -1 -135 -20 -129 -10 3 -41 8 -67 10 -26 2
-67 7 -90 10 l-43 8 0 118 0 119 110 0 110 0 0 -136z m230 -14 l0 -150 -57 1
c-32 0 -80 6 -108 13 l-50 11 -3 138 -3 137 111 0 110 0 0 -150z m250 0 l0
-150 -120 0 -120 0 0 150 0 150 120 0 120 0 0 -150z m230 0 l0 -150 -110 0
-110 0 0 150 0 150 110 0 110 0 0 -150z m241 133 c1 -17 2 -17 6 0 4 15 18 17
119 17 l114 0 0 -150 0 -150 -97 -2 -98 -2 98 -3 97 -4 0 -149 0 -150 -115 0
-115 0 -2 128 -2 127 -3 -127 -4 -128 -114 0 -115 0 0 37 c0 35 0 36 20 18 11
-10 20 -14 20 -8 0 5 -9 18 -20 28 -18 16 -20 31 -20 122 0 91 2 103 18 104
16 1 16 2 0 6 -16 4 -18 20 -18 154 l0 149 115 0 c102 0 115 -2 116 -17z
m-3801 -443 l0 -150 -110 0 -110 0 0 150 0 150 110 0 110 0 0 -150z m240 0 l0
-150 -115 0 -115 0 0 150 0 150 115 0 115 0 0 -150z m230 0 l0 -150 -110 0
-110 0 0 150 0 150 110 0 110 0 0 -150z m250 0 l0 -150 -120 0 -120 0 0 150 0
150 120 0 120 0 0 -150z m230 0 l0 -150 -110 0 -110 0 0 150 0 150 110 0 110
0 0 -150z m230 0 l0 -150 -110 0 -110 0 0 150 0 150 110 0 110 0 0 -150z m250
28 l0 -123 -49 -27 c-41 -23 -61 -28 -120 -28 l-71 0 0 150 0 150 120 0 120 0
0 -122z m230 57 l0 -66 -72 -33 c-40 -18 -80 -36 -88 -40 -8 -3 -25 -13 -37
-22 l-23 -16 0 121 0 121 110 0 110 0 0 -65z m240 51 c0 -22 -23 -35 -92 -55
-35 -10 -78 -26 -96 -35 -17 -9 -33 -16 -37 -16 -3 0 -5 27 -5 60 l0 60 115 0
c91 0 115 -3 115 -14z m240 -136 l0 -150 -115 0 -115 0 0 130 c0 117 2 130 18
130 9 0 44 9 77 20 33 10 77 19 98 19 l37 1 0 -150z m230 0 l0 -150 -110 0
-110 0 0 150 0 150 110 0 110 0 0 -150z m250 0 l0 -150 -120 0 -120 0 0 150 0
150 120 0 120 0 0 -150z m230 0 l0 -150 -110 0 -110 0 0 150 0 150 110 0 110
0 0 -150z m193 130 l37 -11 0 -134 0 -135 -110 0 -110 0 0 151 0 152 73 -6
c39 -3 89 -11 110 -17z m517 -84 l0 -105 -82 38 c-46 21 -95 43 -110 49 -26
11 -28 16 -28 67 l0 55 110 0 110 0 0 -104z m-366 39 c147 -53 136 -41 136
-145 l0 -90 -120 0 -120 0 0 135 c0 74 1 135 3 135 1 0 46 -16 101 -35z
m-1294 -110 l0 -125 -115 0 -115 0 0 78 0 79 48 21 c26 12 76 33 112 46 36 13
66 24 68 25 1 0 2 -55 2 -124z m1523 12 c40 -18 87 -40 105 -48 28 -12 32 -19
32 -51 l0 -38 -110 0 -110 0 0 85 c0 47 3 85 6 85 3 0 38 -15 77 -33z m-1763
-62 l0 -75 -110 0 c-101 0 -110 2 -110 19 0 10 12 27 27 37 22 15 180 93 191
94 1 0 2 -34 2 -75z m-1660 -240 l0 -155 -110 0 -110 0 0 155 0 155 110 0 110
0 0 -155z m240 0 l0 -155 -115 0 -115 0 0 155 0 155 115 0 115 0 0 -155z m230
0 l0 -155 -110 0 -110 0 0 155 0 155 110 0 110 0 0 -155z m250 0 l0 -155 -120
0 -120 0 0 155 0 155 120 0 120 0 0 -155z m230 21 l0 -135 -29 -20 c-24 -17
-44 -21 -110 -21 l-81 0 0 155 0 155 110 0 110 0 0 -134z m230 86 c0 -47 0
-48 -62 -89 -35 -23 -84 -61 -110 -84 l-48 -41 0 131 0 131 110 0 110 0 0 -48z
m250 -107 l0 -155 -120 0 -120 0 0 103 0 104 53 35 c28 19 63 42 77 51 14 9
44 16 68 16 l42 1 0 -155z m230 0 l0 -155 -110 0 -110 0 0 155 0 155 110 0
110 0 0 -155z m240 0 l0 -155 -115 0 -115 0 0 155 0 155 115 0 115 0 0 -155z
m240 0 l0 -155 -115 0 -115 0 0 155 0 155 115 0 115 0 0 -155z m230 0 l0 -155
-110 0 -110 0 0 155 0 155 110 0 110 0 0 -155z m250 0 l0 -155 -120 0 -120 0
0 155 0 155 120 0 120 0 0 -155z m230 28 l0 -128 -56 -24 c-31 -14 -81 -27
-110 -29 l-54 -4 0 156 0 156 110 0 110 0 0 -127z m230 42 c0 -94 -2 -97 -75
-111 -22 -4 -64 -17 -92 -30 l-53 -23 0 125 0 124 110 0 110 0 0 -85z m250 31
l0 -53 -42 -12 c-66 -17 -172 -41 -185 -41 -9 0 -13 23 -13 80 l0 80 120 0
120 0 0 -54z m230 10 l0 -44 -77 -5 c-43 -3 -93 -9 -110 -13 l-33 -6 0 56 0
56 110 0 110 0 0 -44z m240 -111 l0 -155 -115 0 -115 0 0 99 c0 91 2 100 23
115 l22 17 -22 -5 c-21 -4 -23 0 -23 40 l0 44 115 0 115 0 0 -155z m240 0 l0
-155 -115 0 -115 0 0 155 0 155 115 0 115 0 0 -155z m-2860 -55 l0 -100 -110
0 c-89 0 -110 3 -110 14 0 8 37 44 83 80 45 35 93 74 107 85 14 11 26 20 28
21 1 0 2 -45 2 -100z m2380 0 l0 -100 -110 0 -110 0 0 90 0 90 28 6 c15 3 32
7 37 9 6 2 43 4 83 4 l72 1 0 -100z m-230 -10 l0 -90 -120 0 -120 0 0 65 c0
62 1 65 28 70 15 4 61 15 102 25 117 29 110 34 110 -70z m-250 -30 l0 -60
-110 0 c-110 0 -110 0 -110 24 0 21 10 28 68 49 63 23 127 44 145 46 4 1 7
-26 7 -59z m-3080 -220 l0 -150 -110 0 -110 0 0 150 0 150 110 0 110 0 0 -150z
m240 0 l0 -150 -115 0 -115 0 0 150 0 150 115 0 115 0 0 -150z m230 0 l0 -150
-110 0 -110 0 0 150 0 150 110 0 110 0 0 -150z m250 78 l0 -71 -77 -79 c-73
-73 -80 -78 -120 -78 l-43 0 0 150 0 150 120 0 120 0 0 -72z m230 -78 l0 -150
-110 0 -110 0 0 75 0 74 47 38 c26 21 65 55 87 75 23 21 51 38 64 38 22 0 22
-1 22 -150z m230 0 l0 -150 -110 0 -110 0 0 150 0 150 110 0 110 0 0 -150z
m250 0 l0 -150 -120 0 -120 0 0 150 0 150 120 0 120 0 0 -150z m230 0 l0 -150
-110 0 -110 0 0 150 0 150 110 0 110 0 0 -150z m240 0 l0 -150 -115 0 -115 0
0 150 0 150 115 0 115 0 0 -150z m240 0 l0 -150 -115 0 -115 0 0 150 0 150
115 0 115 0 0 -150z m230 62 c0 -88 0 -88 -32 -112 -81 -60 -147 -100 -167
-100 -20 0 -21 4 -21 150 l0 150 110 0 110 0 0 -88z m250 68 c0 -15 -15 -27
-52 -45 -55 -26 -103 -54 -150 -86 -15 -11 -30 -19 -33 -19 -3 0 -5 38 -5 85
l0 85 120 0 c114 0 120 -1 120 -20z m230 -130 l0 -150 -110 0 -110 0 0 125 0
124 48 25 c34 18 64 25 110 25 l62 1 0 -150z m230 0 l0 -150 -110 0 -110 0 0
150 0 150 110 0 110 0 0 -150z m250 0 l0 -150 -120 0 -120 0 0 150 0 150 120
0 120 0 0 -150z m230 0 l0 -150 -110 0 -110 0 0 150 0 150 110 0 110 0 0 -150z
m240 0 l0 -150 -115 0 -115 0 0 150 0 150 115 0 115 0 0 -150z m240 0 l0 -150
-115 0 -115 0 0 150 0 150 115 0 115 0 0 -150z m-1420 -30 l0 -120 -120 0
-120 0 0 51 c0 59 -3 56 115 127 76 47 101 59 118 61 4 1 7 -53 7 -119z
m-2620 -280 l0 -150 -110 0 -110 0 0 150 0 150 110 0 110 0 0 -150z m240 0 l0
-150 -115 0 -115 0 0 150 0 150 115 0 115 0 0 -150z m230 106 c0 -36 -6 -50
-36 -82 -20 -22 -63 -69 -96 -106 -34 -38 -67 -68 -74 -68 -11 0 -14 30 -14
150 l0 150 110 0 110 0 0 -44z m250 -106 l0 -150 -120 0 -120 0 0 100 0 101
46 49 47 50 73 0 74 0 0 -150z m230 0 l0 -150 -110 0 -110 0 0 150 0 150 110
0 110 0 0 -150z m230 0 l0 -150 -110 0 -110 0 0 150 0 150 110 0 110 0 0 -150z
m250 0 l0 -150 -120 0 -120 0 0 150 0 150 120 0 120 0 0 -150z m230 0 l0 -150
-110 0 -110 0 0 150 0 150 110 0 110 0 0 -150z m240 43 l0 -108 -49 -42 c-48
-41 -53 -43 -115 -43 l-66 0 0 150 0 150 115 0 115 0 0 -107z m240 94 c0 -13
-41 -51 -116 -107 -18 -14 -51 -40 -74 -58 l-40 -34 0 106 0 106 115 0 c89 0
115 -3 115 -13z m230 -137 l0 -150 -110 0 -110 0 0 133 0 132 28 17 c19 13 50
18 110 18 l82 0 0 -150z m250 0 l0 -150 -120 0 -120 0 0 150 0 150 120 0 120
0 0 -150z m230 0 l0 -150 -110 0 -110 0 0 150 0 150 110 0 110 0 0 -150z m230
0 l0 -150 -110 0 -110 0 0 150 0 150 110 0 110 0 0 -150z m250 0 l0 -150 -120
0 -120 0 0 150 0 150 120 0 120 0 0 -150z m230 0 l0 -150 -110 0 -110 0 0 150
0 150 110 0 110 0 0 -150z m240 0 l0 -150 -115 0 -115 0 0 150 0 150 115 0
115 0 0 -150z m240 0 l0 -150 -115 0 -115 0 0 150 0 150 115 0 115 0 0 -150z
m-1900 -25 l0 -125 -115 0 -115 0 0 34 c0 31 8 41 66 88 36 29 86 70 111 91
24 20 46 37 49 37 2 0 4 -56 4 -125z m-1673 -122 c-3 -2 -41 -3 -86 -1 l-81 3
83 89 82 88 3 -87 c2 -48 1 -89 -1 -92z m-467 -163 l0 -150 -110 0 -110 0 0
150 0 150 110 0 110 0 0 -150z m240 133 c-1 -10 -23 -45 -50 -78 -28 -33 -75
-93 -105 -132 -31 -40 -60 -73 -65 -73 -6 0 -10 61 -10 150 l0 150 115 0 c103
0 115 -2 115 -17z m230 -133 l0 -150 -110 0 -110 0 0 125 c0 173 2 175 126
175 l94 0 0 -150z m250 0 l0 -150 -120 0 -120 0 0 150 0 150 120 0 120 0 0
-150z m230 0 l0 -150 -110 0 -110 0 0 150 0 150 110 0 110 0 0 -150z m230 0
l0 -150 -110 0 -110 0 0 150 0 150 110 0 110 0 0 -150z m250 0 l0 -150 -120 0
-120 0 0 150 0 150 120 0 120 0 0 -150z m230 87 c0 -62 0 -63 -56 -121 -71
-76 -122 -116 -145 -116 -18 0 -19 10 -19 150 l0 150 110 0 110 0 0 -63z m240
-87 l0 -150 -115 0 -115 0 0 79 0 79 76 71 c67 63 80 71 115 71 l39 0 0 -150z
m240 0 l0 -150 -115 0 -115 0 0 150 0 150 115 0 115 0 0 -150z m230 0 l0 -150
-110 0 -110 0 0 150 0 150 110 0 110 0 0 -150z m250 0 l0 -150 -120 0 -120 0
0 150 0 150 120 0 120 0 0 -150z m230 0 l0 -150 -110 0 -110 0 0 150 0 150
110 0 110 0 0 -150z m230 31 c0 -83 -4 -121 -12 -128 -25 -19 -136 -53 -172
-53 l-36 0 0 150 0 150 110 0 110 0 0 -119z m250 45 l0 -74 -42 -16 c-24 -8
-65 -22 -91 -31 -27 -8 -62 -22 -78 -30 l-29 -16 0 121 0 120 120 0 120 0 0
-74z m230 36 l0 -38 -92 -28 c-51 -15 -101 -30 -110 -33 -16 -4 -18 4 -18 66
l0 71 110 0 110 0 0 -38z m242 -14 l2 -53 3 53 4 52 115 0 114 0 0 -150 0
-150 -82 -2 -83 -2 83 -3 82 -4 0 -149 0 -150 -115 0 -115 0 -2 93 -2 92 -3
-92 -4 -93 -114 0 -115 0 -2 93 -2 92 -3 -92 -4 -93 -109 0 -110 0 0 150 0
150 88 2 87 2 -87 3 -88 4 0 68 c0 66 1 69 28 79 52 19 157 51 184 56 15 2 35
9 45 15 16 9 16 10 -4 11 -19 0 -23 5 -23 35 l0 35 115 0 115 0 2 -52z m-3562
-128 l0 -120 -96 0 -95 0 28 38 c15 20 45 57 68 82 22 25 51 62 65 82 14 21
26 38 28 38 1 0 2 -54 2 -120z m3090 -50 l0 -70 -120 0 c-119 0 -120 0 -120
23 0 24 42 46 145 77 22 7 51 19 65 26 14 7 26 14 28 14 1 0 2 -31 2 -70z
m-3330 -230 l0 -150 -110 0 -110 0 0 150 0 150 110 0 110 0 0 -150z m240 0 l0
-150 -115 0 -115 0 0 138 c0 94 4 142 12 150 8 8 48 12 115 12 l103 0 0 -150z
m230 0 l0 -150 -110 0 -110 0 0 150 0 150 110 0 110 0 0 -150z m250 0 l0 -150
-120 0 -120 0 0 150 0 150 120 0 120 0 0 -150z m230 0 l0 -150 -110 0 -110 0
0 150 0 150 110 0 110 0 0 -150z m230 0 l0 -150 -110 0 -110 0 0 150 0 150
110 0 110 0 0 -150z m250 122 c0 -19 -11 -38 -31 -58 -17 -16 -65 -71 -106
-121 -42 -51 -82 -93 -89 -93 -11 0 -14 29 -14 150 l0 150 120 0 120 0 0 -28z
m230 -122 l0 -150 -110 0 -110 0 0 116 c0 109 1 117 26 150 26 34 26 34 110
34 l84 0 0 -150z m240 0 l0 -150 -115 0 -115 0 0 150 0 150 115 0 115 0 0
-150z m240 0 l0 -150 -115 0 -115 0 0 150 0 150 115 0 115 0 0 -150z m230 6
c0 -122 -2 -145 -16 -150 -9 -3 -58 -6 -110 -6 l-94 0 0 150 0 150 110 0 110
0 0 -144z m250 69 l0 -76 -44 -18 c-24 -11 -76 -38 -116 -60 -39 -23 -74 -41
-76 -41 -2 0 -4 61 -4 135 l0 135 120 0 120 0 0 -75z m230 55 c0 -11 -4 -20
-9 -20 -6 0 -55 -22 -110 -49 l-101 -48 0 68 0 69 110 0 c103 0 110 -1 110
-20z m230 -130 l0 -150 -110 0 -110 0 0 128 0 128 48 21 c30 13 70 21 110 22
l62 1 0 -150z m250 0 l0 -150 -120 0 -120 0 0 150 0 150 120 0 120 0 0 -150z
m-480 -25 l0 -125 -110 0 -110 0 0 73 0 73 108 51 c59 29 108 52 110 52 1 1 2
-55 2 -124z m-1420 -20 l0 -105 -96 0 -96 0 33 43 c30 38 150 167 156 167 2 0
3 -47 3 -105z m1190 -40 l0 -65 -122 0 c-107 0 -120 2 -103 14 29 19 209 116
218 116 4 0 7 -29 7 -65z m-2620 -225 l0 -150 -110 0 -110 0 0 150 0 150 110
0 110 0 0 -150z m242 33 l2 -118 3 118 4 117 109 0 110 0 2 -117 2 -118 3 118
4 117 119 0 120 0 0 -150 0 -150 -67 -2 -68 -2 68 -3 67 -4 0 -149 0 -150
-120 0 c-117 0 -120 0 -121 23 l-2 22 -4 -22 c-4 -22 -8 -23 -114 -23 -106 0
-109 1 -110 23 l-2 22 -4 -22 c-4 -22 -8 -23 -119 -23 l-114 0 0 150 0 150 68
2 67 2 -67 3 -68 4 0 149 0 150 115 0 115 0 2 -117z m708 -33 l0 -150 -110 0
-110 0 0 150 0 150 110 0 110 0 0 -150z m230 132 c0 -10 -27 -48 -59 -84 -33
-37 -80 -97 -106 -133 -26 -36 -49 -65 -51 -65 -2 0 -4 68 -4 150 l0 150 110
0 c99 0 110 -2 110 -18z m250 -132 l0 -150 -120 0 -120 0 0 132 c0 171 -2 168
137 168 l103 0 0 -150z m230 0 l0 -150 -110 0 -110 0 0 150 0 150 110 0 110 0
0 -150z m240 16 c0 -167 1 -166 -137 -166 l-93 0 0 150 0 150 115 0 115 0 0
-134z m240 79 c0 -53 -2 -56 -37 -80 -57 -38 -166 -110 -180 -119 -10 -6 -13
22 -13 123 l0 131 115 0 115 0 0 -55z m230 -95 l0 -150 -110 0 -110 0 0 90 0
90 55 32 c107 63 150 87 158 87 4 1 7 -66 7 -149z m250 0 l0 -150 -120 0 -120
0 0 150 0 150 120 0 120 0 0 -150z m230 0 l0 -150 -110 0 -110 0 0 150 0 150
110 0 110 0 0 -150z m230 0 l0 -150 -110 0 -110 0 0 150 0 150 110 0 110 0 0
-150z m250 0 l0 -150 -120 0 -120 0 0 150 0 150 120 0 120 0 0 -150z m230 0
l0 -150 -110 0 -110 0 0 150 0 150 110 0 110 0 0 -150z m240 0 l0 -150 -115 0
-115 0 0 150 0 150 115 0 115 0 0 -150z m240 0 l0 -150 -115 0 -115 0 0 150 0
150 115 0 115 0 0 -150z m-2863 -147 c-3 -2 -46 -2 -97 -1 l-92 3 49 66 c27
37 69 89 94 116 l44 50 3 -115 c1 -63 1 -116 -1 -119z m963 82 l0 -85 -115 0
c-63 0 -115 4 -115 9 0 5 39 35 88 67 48 32 98 65 112 75 14 10 26 18 28 18 1
1 2 -37 2 -84z m-2140 -245 l0 -150 -110 0 -110 0 0 150 0 150 110 0 110 0 0
-150z m909 88 c-23 -35 -61 -85 -84 -113 -23 -27 -54 -68 -68 -90 l-27 -40 0
153 0 152 110 0 111 0 -42 -62z m271 -88 l0 -150 -110 0 -110 0 0 143 c0 79 3
147 7 150 3 4 53 7 110 7 l103 0 0 -150z m250 0 l0 -150 -120 0 -120 0 0 150
0 150 120 0 120 0 0 -150z m230 81 l0 -69 -47 -35 c-117 -87 -141 -106 -148
-116 -19 -32 -25 1 -25 139 l0 150 110 0 110 0 0 -69z m240 -81 l0 -150 -115
0 -115 0 0 73 c0 70 2 75 33 104 17 16 58 47 90 68 31 20 60 41 63 46 3 5 14
9 25 9 18 0 19 -8 19 -150z m240 0 l0 -150 -115 0 -115 0 0 150 0 150 115 0
115 0 0 -150z m230 0 l0 -150 -110 0 -110 0 0 150 0 150 110 0 110 0 0 -150z
m250 0 l0 -150 -120 0 -120 0 0 150 0 150 120 0 120 0 0 -150z m230 0 l0 -150
-110 0 -110 0 0 150 0 150 110 0 110 0 0 -150z m230 0 l0 -150 -110 0 -110 0
0 150 0 150 110 0 110 0 0 -150z m250 0 l0 -150 -120 0 -120 0 0 150 0 150
120 0 120 0 0 -150z m230 0 l0 -150 -110 0 -110 0 0 150 0 150 110 0 110 0 0
-150z m240 0 l0 -150 -115 0 -115 0 0 150 0 150 115 0 115 0 0 -150z m240 0
l0 -150 -115 0 -115 0 0 150 0 150 115 0 115 0 0 -150z m-3090 -15 l0 -135
-95 0 c-52 0 -95 3 -95 8 0 4 18 30 39 57 22 28 64 85 93 127 29 43 54 77 56
78 1 0 2 -61 2 -135z m-950 -295 l0 -150 -110 0 -110 0 0 150 0 150 110 0 110
0 0 -150z m240 0 l0 -150 -115 0 -115 0 0 150 0 150 115 0 115 0 0 -150z m230
0 l0 -150 -110 0 -110 0 0 150 0 150 110 0 110 0 0 -150z m250 145 c0 -7 -167
-253 -188 -277 -8 -10 -23 -18 -34 -18 -17 0 -18 11 -18 150 l0 150 120 0 c66
0 120 -2 120 -5z m230 -145 l0 -150 -110 0 -110 0 0 134 c0 74 3 141 6 150 5
13 25 16 110 16 l104 0 0 -150z m230 43 l0 -108 -46 -42 c-44 -41 -48 -43
-110 -43 l-64 0 0 150 0 150 110 0 110 0 0 -107z m215 74 c-22 -18 -74 -62
-117 -99 -42 -38 -79 -68 -82 -68 -3 0 -6 45 -6 100 l0 100 123 0 122 -1 -40
-32z m265 -117 l0 -150 -110 0 -110 0 0 144 c0 106 3 146 13 149 6 3 56 6 110
6 l97 1 0 -150z m240 0 l0 -150 -115 0 -115 0 0 150 0 150 115 0 115 0 0 -150z
m240 0 l0 -150 -115 0 -115 0 0 150 0 150 115 0 115 0 0 -150z m230 0 l0 -150
-110 0 -110 0 0 150 0 150 110 0 110 0 0 -150z m250 0 l0 -150 -120 0 -120 0
0 150 0 150 120 0 120 0 0 -150z m230 0 l0 -150 -110 0 -110 0 0 150 0 150
110 0 110 0 0 -150z m230 0 l0 -150 -110 0 -110 0 0 150 0 150 110 0 110 0 0
-150z m250 0 l0 -150 -120 0 -120 0 0 150 0 150 120 0 120 0 0 -150z m230 0
l0 -150 -110 0 -110 0 0 150 0 150 110 0 110 0 0 -150z m240 0 l0 -150 -115 0
-115 0 0 150 0 150 115 0 115 0 0 -150z m240 0 l0 -150 -115 0 -115 0 0 150 0
150 115 0 115 0 0 -150z m-2610 -15 l0 -135 -120 0 -120 0 0 40 c0 22 4 40 9
40 5 0 39 28 77 63 62 56 145 126 152 127 1 0 2 -61 2 -135z m-710 -5 l0 -130
-90 0 -90 0 88 130 c48 71 88 129 90 130 1 0 2 -58 2 -130z m-720 -295 l0
-155 -110 0 -110 0 0 155 0 155 110 0 110 0 0 -155z m240 0 l0 -155 -115 0
-115 0 0 155 0 155 115 0 115 0 0 -155z m230 116 c0 -35 -8 -51 -53 -106 -4
-5 -28 -45 -53 -87 -42 -74 -46 -78 -79 -78 l-35 0 0 155 0 155 110 0 110 0 0
-39z m250 -116 l0 -155 -120 0 -120 0 0 112 c0 101 2 115 25 155 l26 43 94 0
95 0 0 -155z m230 96 l0 -59 -104 -96 c-57 -53 -106 -96 -110 -96 -3 0 -6 70
-6 155 l0 155 110 0 110 0 0 -59z m230 -96 l0 -155 -110 0 -110 0 0 87 0 87
67 68 c62 63 71 68 110 68 l43 0 0 -155z m250 0 l0 -155 -120 0 -120 0 0 155
0 155 120 0 120 0 0 -155z m230 0 l0 -155 -110 0 -110 0 0 155 0 155 110 0
110 0 0 -155z m240 0 l0 -155 -115 0 -115 0 0 155 0 155 115 0 115 0 0 -155z
m240 0 l0 -155 -115 0 -115 0 0 155 0 155 115 0 115 0 0 -155z m230 0 l0 -155
-110 0 -110 0 0 155 0 155 110 0 110 0 0 -155z m250 20 l0 -135 -35 0 c-28 0
-35 -4 -35 -20 0 -18 -7 -20 -85 -20 l-85 0 0 155 0 155 120 0 120 0 0 -135z
m230 0 l0 -135 -110 0 -110 0 0 135 0 135 110 0 110 0 0 -135z m230 0 l0 -135
-110 0 -110 0 0 135 0 135 110 0 110 0 0 -135z m250 0 l0 -135 -120 0 -120 0
0 135 0 135 120 0 120 0 0 -135z m230 0 l0 -135 -110 0 -110 0 0 135 0 135
110 0 110 0 0 -135z m240 0 l0 -135 -115 0 -115 0 0 135 0 135 115 0 115 0 0
-135z m240 -20 l0 -155 -70 0 c-63 0 -70 2 -70 20 0 17 -7 20 -45 20 l-45 0 0
135 0 135 115 0 115 0 0 -155z m-3090 -70 l0 -85 -92 0 -93 0 90 85 c50 46 91
84 93 85 1 0 2 -38 2 -85z m2940 -790 l0 -735 -665 0 -665 0 0 735 0 735 665
0 665 0 0 -735z m-3890 545 l0 -150 -110 0 -110 0 0 150 0 150 110 0 110 0 0
-150z m239 88 c0 -58 -5 -70 -52 -148 l-52 -85 -63 -3 -62 -3 0 151 0 150 115
0 115 0 -1 -62z m231 -76 c0 -94 -4 -142 -12 -150 -8 -8 -47 -12 -110 -12
l-98 0 0 87 c0 85 1 88 41 150 l41 63 69 0 69 0 0 -138z m250 132 c0 -3 -54
-60 -120 -127 l-120 -122 0 128 0 127 120 0 c66 0 120 -3 120 -6z m230 -144
l0 -150 -110 0 -110 0 0 138 c0 94 4 142 12 150 8 8 47 12 110 12 l98 0 0
-150z m230 0 l0 -150 -110 0 -110 0 0 150 0 150 110 0 110 0 0 -150z m250 0
l0 -150 -120 0 -120 0 0 150 0 150 120 0 120 0 0 -150z m230 0 l0 -150 -110 0
-110 0 0 150 0 150 110 0 110 0 0 -150z m240 0 l0 -150 -115 0 -115 0 0 150 0
150 115 0 115 0 0 -150z m240 0 l0 -150 -115 0 -115 0 0 150 0 150 115 0 115
0 0 -150z m230 0 l0 -150 -110 0 -110 0 0 150 0 150 110 0 110 0 0 -150z m180
0 l0 -150 -85 0 -85 0 0 150 0 150 85 0 85 0 0 -150z m1490 0 l0 -150 -70 0
-70 0 0 150 0 150 70 0 70 0 0 -150z m-3320 -20 l0 -130 -120 0 c-83 0 -120 3
-120 11 0 14 223 247 238 249 1 0 2 -58 2 -130z m-720 -290 l0 -150 -110 0
-110 0 0 150 0 150 110 0 110 0 0 -150z m240 48 l0 -103 -41 -47 -41 -48 -74
0 -74 0 0 39 c0 27 9 54 29 83 16 24 44 73 62 111 l33 67 53 0 53 0 0 -102z
m161 75 c-11 -16 -50 -59 -85 -98 l-65 -70 -1 98 0 97 86 0 85 0 -20 -27z m69
-123 l0 -150 -110 0 -110 0 0 41 c0 36 7 49 47 93 107 117 155 166 164 166 5
0 9 -67 9 -150z m250 0 l0 -150 -120 0 -120 0 0 150 0 150 120 0 120 0 0 -150z
m230 0 l0 -150 -110 0 -110 0 0 150 0 150 110 0 110 0 0 -150z m230 0 l0 -150
-110 0 -110 0 0 150 0 150 110 0 110 0 0 -150z m250 0 l0 -150 -120 0 -120 0
0 150 0 150 120 0 120 0 0 -150z m230 0 l0 -150 -110 0 -110 0 0 150 0 150
110 0 110 0 0 -150z m240 0 l0 -150 -115 0 -115 0 0 150 0 150 115 0 115 0 0
-150z m240 0 l0 -150 -115 0 -115 0 0 150 0 150 115 0 115 0 0 -150z m230 0
l0 -150 -110 0 -110 0 0 150 0 150 110 0 110 0 0 -150z m180 0 l0 -150 -85 0
-85 0 0 150 0 150 85 0 85 0 0 -150z m1490 0 l0 -150 -70 0 -70 0 0 150 0 150
70 0 70 0 0 -150z m-4040 -310 l0 -150 -110 0 -110 0 0 150 0 150 110 0 110 0
0 -150z m240 0 l0 -150 -115 0 -115 0 0 63 0 62 82 88 c71 75 86 87 115 87
l33 0 0 -150z m230 0 l0 -150 -110 0 -110 0 0 150 0 150 110 0 110 0 0 -150z
m250 0 l0 -150 -120 0 -120 0 0 150 0 150 120 0 120 0 0 -150z m230 0 l0 -150
-110 0 -110 0 0 150 0 150 110 0 110 0 0 -150z m230 0 l0 -150 -110 0 -110 0
0 150 0 150 110 0 110 0 0 -150z m250 0 l0 -150 -120 0 -120 0 0 150 0 150
120 0 120 0 0 -150z m230 0 l0 -150 -110 0 -110 0 0 150 0 150 110 0 110 0 0
-150z m240 0 l0 -150 -115 0 -115 0 0 150 0 150 115 0 115 0 0 -150z m240 0
l0 -150 -115 0 -115 0 0 150 0 150 115 0 115 0 0 -150z m230 0 l0 -150 -110 0
-110 0 0 150 0 150 110 0 110 0 0 -150z m180 0 l0 -150 -85 0 -85 0 0 150 0
150 85 0 85 0 0 -150z m1490 0 l0 -150 -70 0 -70 0 0 150 0 150 70 0 70 0 0
-150z m-4040 -310 l0 -150 -110 0 -110 0 0 150 0 150 110 0 110 0 0 -150z
m240 0 l0 -150 -115 0 -115 0 0 150 0 150 115 0 115 0 0 -150z m230 0 l0 -150
-110 0 -110 0 0 150 0 150 110 0 110 0 0 -150z m250 0 l0 -150 -120 0 -120 0
0 150 0 150 120 0 120 0 0 -150z m230 0 l0 -150 -110 0 -110 0 0 150 0 150
110 0 110 0 0 -150z m230 0 l0 -150 -110 0 -110 0 0 150 0 150 110 0 110 0 0
-150z m250 0 l0 -150 -120 0 -120 0 0 150 0 150 120 0 120 0 0 -150z m230 0
l0 -150 -110 0 -110 0 0 150 0 150 110 0 110 0 0 -150z m240 0 l0 -150 -115 0
-115 0 0 150 0 150 115 0 115 0 0 -150z m240 0 l0 -150 -115 0 -115 0 0 150 0
150 115 0 115 0 0 -150z m230 0 l0 -150 -110 0 -110 0 0 150 0 150 110 0 110
0 0 -150z m180 0 l0 -150 -85 0 -85 0 0 150 0 150 85 0 85 0 0 -150z m1490 0
l0 -150 -70 0 -70 0 0 150 0 150 70 0 70 0 0 -150z m-4040 -315 l0 -155 -110
0 -110 0 0 155 0 155 110 0 110 0 0 -155z m240 0 l0 -155 -115 0 -115 0 0 155
0 155 115 0 115 0 0 -155z m230 0 l0 -155 -110 0 -110 0 0 155 0 155 110 0
110 0 0 -155z m250 0 l0 -155 -120 0 -120 0 0 155 0 155 120 0 120 0 0 -155z
m230 0 l0 -155 -110 0 -110 0 0 155 0 155 110 0 110 0 0 -155z m230 0 l0 -155
-110 0 -110 0 0 155 0 155 110 0 110 0 0 -155z m250 0 l0 -155 -120 0 -120 0
0 155 0 155 120 0 120 0 0 -155z m230 0 l0 -155 -110 0 -110 0 0 155 0 155
110 0 110 0 0 -155z m240 0 l0 -155 -115 0 -115 0 0 155 0 155 115 0 115 0 0
-155z m240 0 l0 -155 -115 0 -115 0 0 155 0 155 115 0 115 0 0 -155z m230 0
l0 -155 -110 0 -110 0 0 155 0 155 110 0 110 0 0 -155z m180 55 l0 -100 35 0
35 0 0 -55 0 -55 -120 0 -120 0 0 155 0 155 85 0 85 0 0 -100z m1490 -55 l0
-155 -115 0 -115 0 0 55 0 55 45 0 45 0 0 100 0 100 70 0 70 0 0 -155z m-1190
-100 l0 -55 -110 0 -110 0 0 55 0 55 110 0 110 0 0 -55z m230 0 l0 -55 -110 0
-110 0 0 55 0 55 110 0 110 0 0 -55z m250 0 l0 -55 -120 0 -120 0 0 55 0 55
120 0 120 0 0 -55z m230 0 l0 -55 -110 0 -110 0 0 55 0 55 110 0 110 0 0 -55z
m240 0 l0 -55 -115 0 -115 0 0 55 0 55 115 0 115 0 0 -55z"/>
<path d="M4760 4173 c-25 -9 -40 -35 -40 -68 0 -46 30 -69 93 -72 28 -1 46 2
39 6 -10 6 -10 15 -2 35 15 40 13 54 -15 81 -23 24 -44 29 -75 18z"/>
<path d="M5836 3818 c-22 -32 -20 -55 9 -83 49 -50 120 -17 126 58 l4 43 -62
2 c-54 2 -63 0 -77 -20z"/>
</g>
</svg>
