<?xml version="1.0" standalone="no"?>
<!DOCTYPE svg PUBLIC "-//W3C//DTD SVG 20010904//EN"
 "http://www.w3.org/TR/2001/REC-SVG-20010904/DTD/svg10.dtd">
<svg version="1.0" xmlns="http://www.w3.org/2000/svg"
 width="595.000000pt" height="653.000000pt" viewBox="0 0 595.000000 653.000000"
 preserveAspectRatio="xMidYMid meet">
<metadata>
Created by potrace 1.16, written by Peter Selinger 2001-2019
</metadata>
<g transform="translate(0.000000,653.000000) scale(0.100000,-0.100000)"
fill="#000000" stroke="none">
<path d="M963 6343 l37 -4 0 -334 0 -334 -37 -4 -38 -4 38 -1 37 -2 0 -329 0
-330 -37 -4 -38 -4 38 -1 37 -2 0 -334 0 -335 -37 -4 -38 -4 38 -1 37 -2 0
-334 0 -335 -37 -4 -38 -4 38 -1 37 -2 0 -334 0 -335 -37 -4 -38 -4 38 -1 37
-2 0 -329 0 -330 -37 -4 -38 -4 38 -1 37 -2 0 -334 0 -335 -37 -4 -38 -4 38
-1 37 -2 0 -334 0 -335 -37 -4 -38 -4 37 -1 c35 -2 37 -4 41 -39 l4 -38 1 38
2 37 464 0 465 0 4 -37 4 -38 1 38 2 37 469 0 470 0 4 -38 4 -37 1 38 2 37
464 0 465 0 4 -38 4 -37 1 38 2 37 469 0 470 0 4 -37 4 -38 1 38 2 37 464 0
465 0 4 -37 c2 -21 4 1201 5 2715 l2 2752 -2402 -2 c-1322 -1 -2386 -3 -2365
-5z m517 -168 l0 -165 -235 0 -235 0 0 165 0 165 235 0 235 0 0 -165z m460 0
l0 -165 -225 0 -225 0 0 165 0 165 225 0 225 0 0 -165z m480 0 l0 -165 -235 0
-235 0 0 165 0 165 235 0 235 0 0 -165z m470 0 l0 -165 -230 0 -230 0 0 165 0
165 230 0 230 0 0 -165z m480 0 l0 -165 -235 0 -235 0 0 165 0 165 235 0 235
0 0 -165z m460 0 l0 -165 -225 0 -225 0 0 165 0 165 225 0 225 0 0 -165z m480
0 l0 -165 -235 0 -235 0 0 165 0 165 235 0 235 0 0 -165z m470 0 l0 -165 -230
0 -230 0 0 165 0 165 230 0 230 0 0 -165z m230 161 c0 -2 -9 -25 -20 -51 -11
-26 -20 -54 -20 -64 0 -9 -9 -33 -19 -54 -10 -20 -27 -64 -37 -97 l-18 -60
-53 0 -53 0 0 165 0 165 110 0 c61 0 110 -2 110 -4z m250 -161 l0 -165 -176 0
-175 0 6 23 c4 12 18 49 32 82 13 33 30 80 37 105 7 25 20 62 29 83 l16 37
115 0 116 0 0 -165z m140 162 c0 -13 -42 -122 -51 -134 -7 -7 -27 -50 -45 -96
l-33 -82 -1 158 0 157 65 0 c36 0 65 -2 65 -3z m320 -162 l0 -165 -219 0 -219
0 29 75 c15 41 35 85 43 98 9 12 22 40 30 62 8 22 19 52 25 68 l11 27 150 0
150 0 0 -165z m-4240 -340 l0 -165 -235 0 -235 0 0 165 0 165 235 0 235 0 0
-165z m460 0 l0 -165 -225 0 -225 0 0 165 0 165 225 0 225 0 0 -165z m480 0
l0 -165 -235 0 -235 0 0 165 0 165 235 0 235 0 0 -165z m470 0 l0 -165 -230 0
-230 0 0 165 0 165 230 0 230 0 0 -165z m480 0 l0 -165 -235 0 -235 0 0 165 0
165 235 0 235 0 0 -165z m460 0 l0 -165 -225 0 -225 0 0 165 0 165 225 0 225
0 0 -165z m480 0 l0 -165 -235 0 -235 0 0 165 0 165 235 0 235 0 0 -165z m470
16 c0 -82 -3 -156 -6 -165 -5 -14 -35 -16 -230 -16 l-224 0 0 165 0 165 230 0
230 0 0 -149z m465 132 c-4 -10 -18 -47 -32 -83 -14 -36 -36 -85 -49 -110 -13
-25 -30 -62 -38 -82 l-15 -38 -160 0 c-89 0 -161 4 -161 9 0 4 9 30 19 57 11
27 36 97 56 157 l38 107 174 0 c163 0 175 -1 168 -17z m475 -148 l0 -165 -225
0 -225 0 0 165 0 165 225 0 225 0 0 -165z m-460 -20 l0 -145 -66 0 c-59 0 -65
2 -59 18 4 9 12 31 18 47 5 17 18 41 27 55 9 14 29 58 44 98 15 39 30 72 32
72 2 0 4 -65 4 -145z m-3780 -320 l0 -165 -235 0 -235 0 0 165 0 165 235 0
235 0 0 -165z m460 0 l0 -165 -225 0 -225 0 0 165 0 165 225 0 225 0 0 -165z
m480 0 l0 -165 -235 0 -235 0 0 165 0 165 235 0 235 0 0 -165z m470 0 l0 -165
-230 0 -230 0 0 165 0 165 230 0 230 0 0 -165z m480 0 l0 -165 -235 0 -235 0
0 165 0 165 235 0 235 0 0 -165z m460 0 l0 -165 -225 0 -225 0 0 165 0 165
225 0 225 0 0 -165z m482 58 l2 -108 3 108 4 107 219 0 c169 0 220 -3 220 -12
0 -18 -58 -194 -81 -246 -10 -23 -19 -49 -19 -57 0 -10 -12 -16 -37 -17 -37
-1 -37 -1 -5 -5 17 -2 32 -7 32 -11 0 -4 -16 -56 -35 -117 -20 -60 -41 -128
-48 -150 l-12 -40 -117 -3 -118 -3 -2 68 -2 68 -3 -67 -4 -68 -234 0 -235 0 0
160 0 160 88 2 87 2 -87 3 -88 4 0 164 0 165 235 0 235 0 2 -107z m765 40
c-19 -38 -40 -86 -47 -108 -7 -22 -23 -56 -35 -75 -12 -19 -25 -45 -29 -57 -7
-21 -13 -23 -92 -23 l-84 0 0 165 0 165 160 0 160 0 -33 -67z m183 -98 l0
-165 -140 0 c-154 0 -155 0 -119 60 12 19 28 53 36 75 7 22 30 75 50 118 l36
77 69 0 68 0 0 -165z m460 0 l0 -165 -225 0 -225 0 0 165 0 165 225 0 225 0 0
-165z m-940 -5 l0 -160 -55 0 c-30 0 -55 2 -55 5 0 3 8 24 19 48 24 56 81 231
81 251 0 9 2 16 5 16 3 0 5 -72 5 -160z m-3300 -330 l0 -160 -235 0 -235 0 0
160 0 160 235 0 235 0 0 -160z m460 0 l0 -160 -225 0 -225 0 0 160 0 160 225
0 225 0 0 -160z m480 0 l0 -160 -235 0 -235 0 0 160 0 160 235 0 235 0 0 -160z
m470 0 l0 -160 -230 0 -230 0 0 160 0 160 230 0 230 0 0 -160z m480 0 l0 -160
-235 0 -235 0 0 160 0 160 235 0 235 0 0 -160z m460 0 l0 -160 -225 0 -225 0
0 160 0 160 225 0 225 0 0 -160z m950 0 l0 -160 -106 0 c-97 0 -106 1 -99 18
4 9 9 26 12 37 3 11 21 70 40 130 19 61 36 116 38 123 3 8 24 12 60 12 l55 0
0 -160z m170 151 c0 -5 -17 -47 -39 -93 -40 -87 -76 -171 -85 -200 -3 -10 -12
-18 -21 -18 -13 0 -15 23 -15 160 l0 160 80 0 c44 0 80 -4 80 -9z m310 -151
l0 -160 -210 0 c-115 0 -210 4 -210 9 0 12 53 140 97 234 l36 77 144 0 143 0
0 -160z m460 0 l0 -160 -225 0 -225 0 0 160 0 160 225 0 225 0 0 -160z m-4240
-335 l0 -165 -235 0 -235 0 0 165 0 165 235 0 235 0 0 -165z m460 0 l0 -165
-225 0 -225 0 0 165 0 165 225 0 225 0 0 -165z m480 0 l0 -165 -235 0 -235 0
0 165 0 165 235 0 235 0 0 -165z m470 0 l0 -165 -230 0 -230 0 0 165 0 165
230 0 230 0 0 -165z m480 0 l0 -165 -235 0 -235 0 0 165 0 165 235 0 235 0 0
-165z m460 0 l0 -165 -225 0 -225 0 0 165 0 165 225 0 225 0 0 -165z m480 0
l0 -165 -235 0 -235 0 0 165 0 165 235 0 235 0 0 -165z m230 154 c0 -11 -48
-171 -78 -264 l-17 -50 -63 -3 -62 -3 0 166 0 165 110 0 c74 0 110 -4 110 -11z
m240 -23 c0 -32 -20 -87 -85 -233 l-28 -63 -105 0 c-95 0 -104 2 -97 18 7 17
69 218 87 280 l9 32 109 0 110 0 0 -34z m482 -63 l2 -98 3 98 4 97 224 0 225
0 0 -165 0 -165 -72 -2 -73 -2 73 -3 72 -4 0 -164 0 -165 -225 0 -225 0 -2 88
-2 87 -3 -87 -4 -88 -234 0 -235 0 0 165 0 165 58 2 57 2 -57 3 -58 4 0 126
c0 110 3 130 22 164 l22 39 213 0 213 0 2 -97z m-3782 -408 l0 -165 -235 0
-235 0 0 165 0 165 235 0 235 0 0 -165z m460 0 l0 -165 -225 0 -225 0 0 165 0
165 225 0 225 0 0 -165z m480 0 l0 -165 -235 0 -235 0 0 165 0 165 235 0 235
0 0 -165z m470 0 l0 -165 -230 0 -230 0 0 165 0 165 230 0 230 0 0 -165z m480
0 l0 -165 -235 0 -235 0 0 165 0 165 235 0 235 0 0 -165z m460 0 l0 -165 -225
0 -225 0 0 165 0 165 225 0 225 0 0 -165z m480 0 l0 -165 -235 0 -235 0 0 165
0 165 235 0 235 0 0 -165z m126 148 c-3 -10 -24 -79 -46 -153 -23 -74 -43
-141 -45 -147 -3 -7 -9 -13 -15 -13 -6 0 -10 58 -10 165 l0 165 61 0 c53 0 60
-2 55 -17z m218 -5 c-3 -13 -17 -43 -30 -68 -13 -25 -44 -89 -68 -142 l-45
-98 -75 0 c-42 0 -76 2 -76 5 0 8 29 111 61 218 l33 107 104 0 c103 0 103 0
96 -22z m126 -143 l0 -165 -125 0 c-69 0 -125 3 -125 8 0 4 6 16 14 27 7 11
26 49 41 85 15 36 40 92 56 124 16 33 29 65 29 73 0 9 16 13 55 13 l55 0 0
-165z m-3300 -340 l0 -165 -235 0 -235 0 0 165 0 165 235 0 235 0 0 -165z
m460 0 l0 -165 -225 0 -225 0 0 165 0 165 225 0 225 0 0 -165z m480 0 l0 -165
-235 0 -235 0 0 165 0 165 235 0 235 0 0 -165z m470 0 l0 -165 -230 0 -230 0
0 165 0 165 230 0 230 0 0 -165z m480 0 l0 -165 -235 0 -235 0 0 165 0 165
235 0 235 0 0 -165z m460 0 l0 -165 -225 0 -225 0 0 165 0 165 225 0 225 0 0
-165z m480 124 c0 -23 -11 -76 -25 -118 -13 -42 -30 -96 -38 -121 l-14 -45
-196 -3 -197 -2 0 165 0 165 235 0 235 0 0 -41z m173 -16 c-14 -32 -47 -105
-72 -163 -38 -85 -51 -106 -70 -108 l-23 -4 4 139 c3 88 9 148 18 166 13 26
16 27 91 27 l78 0 -26 -57z m297 -108 l0 -165 -200 0 c-110 0 -200 4 -200 8 0
4 4 12 9 17 5 6 18 35 29 65 11 30 36 87 55 125 19 39 38 80 41 93 7 21 11 22
137 22 l129 0 0 -165z m480 0 l0 -165 -235 0 -235 0 0 165 0 165 235 0 235 0
0 -165z m460 0 l0 -165 -225 0 -225 0 0 165 0 165 225 0 225 0 0 -165z m-4240
-340 l0 -165 -235 0 -235 0 0 165 0 165 235 0 235 0 0 -165z m460 0 l0 -165
-225 0 -225 0 0 165 0 165 225 0 225 0 0 -165z m480 0 l0 -165 -235 0 -235 0
0 165 0 165 235 0 235 0 0 -165z m470 0 l0 -165 -230 0 -230 0 0 165 0 165
230 0 230 0 0 -165z m480 0 l0 -165 -235 0 -235 0 0 165 0 165 235 0 235 0 0
-165z m460 0 l0 -165 -225 0 -225 0 0 165 0 165 225 0 225 0 0 -165z m378 103
c-11 -35 -35 -108 -53 -163 l-32 -100 -142 -3 -141 -3 0 166 0 165 194 0 193
0 -19 -62z m102 11 c0 -41 -10 -72 -55 -165 -53 -108 -57 -114 -86 -114 -27 0
-30 3 -24 23 4 12 27 86 52 165 l45 142 34 0 34 0 0 -51z m470 -114 l0 -165
-230 0 -230 0 0 115 c0 104 3 121 25 165 l25 50 205 0 205 0 0 -165z m480 0
l0 -165 -235 0 -235 0 0 165 0 165 235 0 235 0 0 -165z m460 0 l0 -165 -225 0
-225 0 0 165 0 165 225 0 225 0 0 -165z m-4240 -340 l0 -165 -235 0 -235 0 0
165 0 165 235 0 235 0 0 -165z m460 0 l0 -165 -225 0 -225 0 0 165 0 165 225
0 225 0 0 -165z m480 0 l0 -165 -235 0 -235 0 0 165 0 165 235 0 235 0 0 -165z
m470 0 l0 -165 -230 0 -230 0 0 165 0 165 230 0 230 0 0 -165z m480 0 l0 -165
-235 0 -235 0 0 165 0 165 235 0 235 0 0 -165z m460 0 l0 -165 -225 0 -225 0
0 165 0 165 225 0 225 0 0 -165z m254 58 c-19 -60 -41 -134 -50 -165 l-17 -58
-88 0 -89 0 0 165 0 165 139 0 139 0 -34 -107z m226 -58 l0 -165 -125 0 c-69
0 -125 3 -125 8 0 4 35 78 77 164 l78 158 48 0 47 0 0 -165z m470 0 l0 -165
-230 0 -230 0 0 165 0 165 230 0 230 0 0 -165z m480 0 l0 -165 -235 0 -235 0
0 165 0 165 235 0 235 0 0 -165z m460 0 l0 -165 -225 0 -225 0 0 165 0 165
225 0 225 0 0 -165z m-4240 -340 l0 -165 -235 0 -235 0 0 165 0 165 235 0 235
0 0 -165z m460 0 l0 -165 -225 0 -225 0 0 165 0 165 225 0 225 0 0 -165z m480
0 l0 -165 -235 0 -235 0 0 165 0 165 235 0 235 0 0 -165z m470 0 l0 -165 -230
0 -230 0 0 165 0 165 230 0 230 0 0 -165z m480 0 l0 -165 -235 0 -235 0 0 165
0 165 235 0 235 0 0 -165z m460 0 l0 -165 -225 0 -225 0 0 165 0 165 225 0
225 0 0 -165z m175 148 c-4 -10 -11 -31 -17 -48 -21 -64 -124 -265 -135 -265
-10 0 -13 39 -13 165 l0 165 86 0 c78 0 85 -2 79 -17z m305 -148 l0 -165 -195
0 c-107 0 -195 1 -195 3 0 1 8 31 19 67 24 83 52 153 86 213 l27 47 129 0 129
0 0 -165z m470 0 l0 -165 -230 0 -230 0 0 165 0 165 230 0 230 0 0 -165z m480
0 l0 -165 -235 0 -235 0 0 165 0 165 235 0 235 0 0 -165z m460 0 l0 -165 -225
0 -225 0 0 165 0 165 225 0 225 0 0 -165z m-4240 -340 l0 -165 -235 0 -235 0
0 165 0 165 235 0 235 0 0 -165z m460 0 l0 -165 -225 0 -225 0 0 165 0 165
225 0 225 0 0 -165z m480 0 l0 -165 -235 0 -235 0 0 165 0 165 235 0 235 0 0
-165z m470 0 l0 -165 -230 0 -230 0 0 165 0 165 230 0 230 0 0 -165z m480 0
l0 -165 -235 0 -235 0 0 165 0 165 235 0 235 0 0 -165z m460 140 c0 -14 -32
-88 -72 -165 l-72 -140 -153 0 -153 0 0 165 0 165 225 0 225 0 0 -25z m480
-140 l0 -165 -235 0 -235 0 0 70 c0 41 6 83 14 98 7 15 17 43 21 62 4 19 13
50 21 68 l13 32 200 0 201 0 0 -165z m470 0 l0 -165 -230 0 -230 0 0 165 0
165 230 0 230 0 0 -165z m480 0 l0 -165 -235 0 -235 0 0 165 0 165 235 0 235
0 0 -165z m460 0 l0 -165 -225 0 -225 0 0 165 0 165 225 0 225 0 0 -165z
m-4240 -335 l0 -160 -235 0 -235 0 0 160 0 160 235 0 235 0 0 -160z m460 0 l0
-160 -225 0 -225 0 0 160 0 160 225 0 225 0 0 -160z m480 0 l0 -160 -235 0
-235 0 0 160 0 160 235 0 235 0 0 -160z m470 0 l0 -160 -230 0 -230 0 0 160 0
160 230 0 230 0 0 -160z m480 0 l0 -160 -235 0 -235 0 0 160 0 160 235 0 235
0 0 -160z m301 143 c-5 -10 -46 -78 -90 -152 -45 -74 -81 -138 -81 -143 0 -4
-27 -8 -60 -8 l-60 0 0 160 0 160 150 0 c140 0 150 -1 141 -17z m94 -5 c-4
-13 -18 -52 -32 -88 -14 -36 -37 -94 -50 -130 -14 -36 -29 -69 -33 -73 -4 -4
-37 -7 -74 -5 l-67 3 38 60 c21 33 63 104 93 157 54 97 55 98 93 98 35 0 38
-2 32 -22z m65 -138 l0 -160 -80 0 c-45 0 -80 4 -80 10 0 5 9 29 20 52 16 36
68 170 93 241 4 9 16 17 27 17 19 0 20 -6 20 -160z m480 0 l0 -160 -235 0
-235 0 0 160 0 160 235 0 235 0 0 -160z m470 0 l0 -160 -230 0 -230 0 0 160 0
160 230 0 230 0 0 -160z m480 0 l0 -160 -235 0 -235 0 0 160 0 160 235 0 235
0 0 -160z m460 0 l0 -160 -225 0 -225 0 0 160 0 160 225 0 225 0 0 -160z
m-4240 -335 l0 -165 -235 0 -235 0 0 165 0 165 235 0 235 0 0 -165z m460 0 l0
-165 -225 0 -225 0 0 165 0 165 225 0 225 0 0 -165z m480 0 l0 -165 -235 0
-235 0 0 165 0 165 235 0 235 0 0 -165z m470 0 l0 -165 -230 0 -230 0 0 165 0
165 230 0 230 0 0 -165z m480 73 l-1 -93 -48 -70 -47 -70 -187 -3 -187 -2 0
165 0 165 235 0 235 0 0 -92z m261 44 c-11 -26 -33 -77 -49 -112 -17 -36 -39
-87 -50 -115 l-20 -50 -66 -3 -66 -3 0 67 c0 60 4 72 38 124 20 32 48 77 62
99 l24 41 73 0 73 0 -19 -48z m199 -117 l0 -165 -151 0 -150 0 7 23 c4 12 33
82 65 155 33 73 59 137 59 142 0 6 37 10 85 10 l85 0 0 -165z m480 0 l0 -165
-235 0 -235 0 0 165 0 165 235 0 235 0 0 -165z m470 0 l0 -165 -230 0 -230 0
0 165 0 165 230 0 230 0 0 -165z m480 0 l0 -165 -235 0 -235 0 0 165 0 165
235 0 235 0 0 -165z m460 0 l0 -165 -225 0 -225 0 0 165 0 165 225 0 225 0 0
-165z m-4240 -340 l0 -165 -235 0 -235 0 0 165 0 165 235 0 235 0 0 -165z
m460 0 l0 -165 -225 0 -225 0 0 165 0 165 225 0 225 0 0 -165z m480 0 l0 -165
-235 0 -235 0 0 165 0 165 235 0 235 0 0 -165z m470 0 l0 -165 -230 0 -230 0
0 165 0 165 230 0 230 0 0 -165z m370 162 c0 -5 -103 -145 -152 -206 -99 -124
-95 -121 -154 -121 l-54 0 0 165 0 165 180 0 c99 0 180 -1 180 -3z m110 -133
c0 -110 -3 -141 -17 -165 l-17 -29 -154 0 -154 0 64 78 c35 42 93 116 128 165
63 86 65 87 107 87 l43 0 0 -136z m114 99 c-21 -50 -74 -153 -91 -178 -11 -17
-13 -3 -13 98 l0 117 60 0 60 0 -16 -37z m346 -128 l0 -165 -225 0 -225 0 0
25 c0 14 32 88 71 165 l70 140 155 0 154 0 0 -165z m480 0 l0 -165 -235 0
-235 0 0 165 0 165 235 0 235 0 0 -165z m470 0 l0 -165 -230 0 -230 0 0 165 0
165 230 0 230 0 0 -165z m480 0 l0 -165 -235 0 -235 0 0 165 0 165 235 0 235
0 0 -165z m460 0 l0 -165 -225 0 -225 0 0 165 0 165 225 0 225 0 0 -165z
m-4240 -340 l0 -165 -235 0 -235 0 0 165 0 165 235 0 235 0 0 -165z m460 0 l0
-165 -225 0 -225 0 0 165 0 165 225 0 225 0 0 -165z m480 0 l0 -165 -235 0
-235 0 0 165 0 165 235 0 235 0 0 -165z m470 107 c0 -57 0 -58 -62 -119 -35
-34 -87 -82 -117 -107 l-55 -46 -113 0 -113 0 0 165 0 165 230 0 230 0 0 -58z
m430 49 c0 -19 -137 -210 -189 -263 l-56 -58 -87 0 -88 0 0 100 0 99 55 58
c30 32 55 61 55 66 0 4 70 7 155 7 85 0 155 -4 155 -9z m50 -156 l0 -165 -137
0 -136 0 52 53 c50 51 88 103 161 220 55 89 60 80 60 -108z m460 0 l0 -165
-225 0 -225 0 0 165 0 165 225 0 225 0 0 -165z m480 0 l0 -165 -235 0 -235 0
0 165 0 165 235 0 235 0 0 -165z m470 0 l0 -165 -230 0 -230 0 0 165 0 165
230 0 230 0 0 -165z m480 0 l0 -165 -235 0 -235 0 0 165 0 165 235 0 235 0 0
-165z m460 0 l0 -165 -225 0 -225 0 0 165 0 165 225 0 225 0 0 -165z m-2830
-75 l0 -90 -102 0 -103 1 49 42 c27 23 70 63 95 89 25 27 49 48 54 48 4 0 7
-40 7 -90z m-1410 -265 l0 -165 -235 0 -235 0 0 165 0 165 235 0 235 0 0 -165z
m460 0 l0 -165 -225 0 -225 0 0 165 0 165 225 0 225 0 0 -165z m480 0 l0 -165
-235 0 -235 0 0 165 0 165 235 0 235 0 0 -165z m188 152 c-9 -7 -31 -20 -49
-30 -17 -10 -29 -20 -26 -23 5 -6 93 39 112 57 5 5 62 9 127 9 l118 0 0 -165
0 -165 -230 0 -230 0 0 165 0 165 98 0 c79 -1 94 -3 80 -13z m417 -12 c-22
-14 -44 -27 -50 -29 -5 -2 -7 -7 -3 -11 4 -4 34 9 66 29 l60 36 136 0 136 0 0
-165 0 -165 -235 0 -235 0 0 165 0 165 83 0 82 -1 -40 -24z m805 -140 l0 -165
-225 0 -225 0 0 165 0 165 225 0 225 0 0 -165z m480 0 l0 -165 -235 0 -235 0
0 165 0 165 235 0 235 0 0 -165z m470 0 l0 -165 -230 0 -230 0 0 165 0 165
230 0 230 0 0 -165z m480 0 l0 -165 -235 0 -235 0 0 165 0 165 235 0 235 0 0
-165z m460 0 l0 -165 -225 0 -225 0 0 165 0 165 225 0 225 0 0 -165z"/>
</g>
</svg>
