{
  "consumer": {
    "name": "spey"
  },
  "provider": {
    "name": "et"
  },
  "interactions": [
    {
      "description": "a request for devices",
      "providerState": "et 1 exists and has devices",
      "request": {
        "method": "GET",
        "path": "/energy_transf/1/devices",
        "matchingRules": {
          "$.path": {
            "match": "regex",
            "regex": "\\/energy_transf\\/\\d+\\/devices"
          }
        }
      },
      "response": {
        "status": 200,
        "headers": {
        },
        "body": [
          {
            "Dev_E_Grid": {
              "value": 1.5
            },
            "Dev_Pa_Grid": {
              "value": {
                "Power": [
                  1.5
                ]
              }
            },
            "Dev_Pr_Grid": {
              "value": {
                "Power": [
                  1.5
                ]
              }
            }
          }
        ],
        "matchingRules": {
          "$.body": {
            "min": 1
          },
          "$.body[*].*": {
            "match": "type"
          }
        }
      }
    },
    {
      "description": "a request for farm",
      "providerState": "et 1 exists and has farm",
      "request": {
        "method": "GET",
        "path": "/energy_transf/1/array",
        "matchingRules": {
          "$.path": {
            "match": "regex",
            "regex": "\\/energy_transf\\/\\d+\\/array"
          }
        }
      },
      "response": {
        "status": 200,
        "headers": {
        },
        "body": {
          "Array_E_Grid": {
            "value": 1.5
          }
        },
        "matchingRules": {
          "$.body": {
            "match": "type"
          }
        }
      }
    }
  ],
  "metadata": {
    "pactSpecification": {
      "version": "2.0.0"
    }
  }
}